{
   "port": "3000",
   "adminAccount": "vectorxxx@foxmail.com",
   "db": {
      "servername": "127.0.0.1",
      "DATABASE": "yapi",
      "port": "27017"
   },
   "mail": {
      "enable": false,
      "host": "smtp.163.com",
      "port": 465,
      "from": "***@163.com",
      "auth": {
         "user": "***@163.com",
         "pass": "*****"
      }
   }
}